D:\Max2011 wxw\材质 2011\03 材质类型\11 无光投影材质\t$m$p$$$\无光投影完成.max
D:\Max2011 wxw\材质 2011\03 材质类型\11 无光投影材质\t$m$p$$$\MAXFILES.TXT
D:\Max2011 wxw\材质 2011\03 材质类型\11 无光投影材质\BG.jpg
D:\Max2011 wxw\材质 2011\03 材质类型\11 无光投影材质\ELEPHANT_H\ELPHSKIN.JPG
D:\Max2011 wxw\材质 2011\03 材质类型\11 无光投影材质\ELEPHANT_H\LAKEREM.JPG
D:\Max2011 wxw\材质 2011\03 材质类型\11 无光投影材质\ELEPHANT_H\ELETUSK.JPG
