D:\Max2011 wxw\材质 2011\03 材质类型\11 无光投影材质\t$m$p$$$\无光投影初始.max
D:\Max2011 wxw\材质 2011\03 材质类型\11 无光投影材质\t$m$p$$$\MAXFILES.TXT
D:\Max2011 wxw\材质 2011\03 材质类型\11 无光投影材质\ELEPHANT_H\ElphSkin.jpg
D:\Max2011 wxw\材质 2011\03 材质类型\11 无光投影材质\ELEPHANT_H\LAKEREM.jpg
D:\Max2011 wxw\材质 2011\03 材质类型\11 无光投影材质\ELEPHANT_H\EleTusk.jpg
